galactic_data_manipulation
…
11. vehicles: List of vehicles the character has piloted

12. star ships: List of star ships the character has piloted

Obj_01: Creating filtered tables from the star wars data

create a couple of filtered tables from the star wars data set which come with the dplyr package

# first data set 
human_droids <- starwars |> 
  filter(species %in% c("Human", "Droid")) |> 
  select(name, homeworld) |> 
  print()

# A tibble: 41 × 2
   name               homeworld
   <chr>              <chr>    
 1 Luke Skywalker     Tatooine 
 2 C-3PO              Tatooine 
 3 R2-D2              Naboo    
 4 Darth Vader        Tatooine 
 5 Leia Organa        Alderaan 
 6 Owen Lars          Tatooine 
 7 Beru Whitesun Lars Tatooine 
 8 R5-D4              Tatooine 
 9 Biggs Darklighter  Tatooine 
10 Obi-Wan Kenobi     Stewjon  
# ℹ 31 more rows

# second data set
humans <- starwars |> 
  filter(species == "Human") |> 
  select(name, species) |> 
  print()

# A tibble: 35 × 2
   name               species
   <chr>              <chr>  
 1 Luke Skywalker     Human  
 2 Darth Vader        Human  
 3 Leia Organa        Human  
 4 Owen Lars          Human  
 5 Beru Whitesun Lars Human  
 6 Biggs Darklighter  Human  
 7 Obi-Wan Kenobi     Human  
 8 Anakin Skywalker   Human  
 9 Wilhuff Tarkin     Human  
10 Han Solo           Human  
# ℹ 25 more rows

The syntax for joins in dplyr works the same as for other tidyverse verbs You can either use form:

1.verb(data1, data2) or

2. the pipe: data1 |> verb(data2) 😁

#both option give the same output but using the pipe operator makes it neateR
inner_join(human_droids, humans)

Joining with `by = join_by(name)`

# A tibble: 35 × 3
   name               homeworld species
   <chr>              <chr>     <chr>  
 1 Luke Skywalker     Tatooine  Human  
 2 Darth Vader        Tatooine  Human  
 3 Leia Organa        Alderaan  Human  
 4 Owen Lars          Tatooine  Human  
 5 Beru Whitesun Lars Tatooine  Human  
 6 Biggs Darklighter  Tatooine  Human  
 7 Obi-Wan Kenobi     Stewjon   Human  
 8 Anakin Skywalker   Tatooine  Human  
 9 Wilhuff Tarkin     Eriadu    Human  
10 Han Solo           Corellia  Human  
# ℹ 25 more rows

# alternatively
human_droids |> 
  inner_join(humans)

Joining with `by = join_by(name)`

# A tibble: 35 × 3
   name               homeworld species
   <chr>              <chr>     <chr>  
 1 Luke Skywalker     Tatooine  Human  
 2 Darth Vader        Tatooine  Human  
 3 Leia Organa        Alderaan  Human  
 4 Owen Lars          Tatooine  Human  
 5 Beru Whitesun Lars Tatooine  Human  
 6 Biggs Darklighter  Tatooine  Human  
 7 Obi-Wan Kenobi     Stewjon   Human  
 8 Anakin Skywalker   Tatooine  Human  
 9 Wilhuff Tarkin     Eriadu    Human  
10 Han Solo           Corellia  Human  
# ℹ 25 more rows
…
